[
  {
    "gamemodes": ["racing"],
    "laps": [8],
    "name": "speedway2_figure_8"
  },
  {
    "gamemodes": ["racing"],
    "laps": [8],
    "name": "speedway2_outer_oval"
  },
  {
    "gamemodes": ["racing"],
    "laps": [5],
    "name": "speedway2_oval_loop"
  },
  {
    "gamemodes": ["racing"],
    "laps": [6],
    "name": "fields10_1"
  },
  {
    "gamemodes": ["racing"],
    "laps": [8],
    "name": "dirt_speedway_figure_8"
  },
  {
    "gamemodes": ["racing"],
    "laps": [4],
    "name": "sandpit3_long_loop"
  },
  {
    "gamemodes": ["racing"],
    "laps": [6],
    "name": "sandpit3_short_loop"
  },
  {
    "gamemodes": ["racing"],
    "laps": [6],
    "name": "mixed9_r1"
  },
  {
    "gamemodes": ["racing"],
    "laps": [3],
    "name": "crm02_1"
  },
  {
    "gamemodes": ["racing"],
    "laps": [4],
    "name": "fields13_1"
  },
  {
    "gamemodes": ["racing"],
    "laps": [4],
    "name": "tarmac2_main_circuit"
  },
  {
    "gamemodes": ["racing"],
    "laps": [4],
    "name": "mixed4_main_circuit"
  },
  {
    "gamemodes": ["racing"],
    "laps": [4],
    "name": "forest13_1"
  },
  {
    "gamemodes": ["racing"],
    "laps": [4],
    "name": "forest11_1"
  },
  {
    "gamemodes": ["racing"],
    "laps": [4],
    "name": "crm01_1"
  },
  {
    "gamemodes": ["racing"],
    "laps": [10],
    "name": "bonebreaker_valley_main_circuit"
  },
  {
    "gamemodes": ["racing"],
    "laps": [7],
    "name": "crash_canyon_main_circuit"
  },
  {
    "gamemodes": ["racing"],
    "laps": [6],
    "name": "loop"
  },
  {
    "gamemodes": ["racing"],
    "laps": [4],
    "name": "crm02_1"
  },
  {
    "gamemodes": ["racing"],
    "laps": [5],
    "name": "triangle_r1"
  },
  {
    "gamemodes": ["racing"],
    "laps": [6],
    "name": "urban08_1_rev"
  },
  {
    "gamemodes": ["racing"],
    "laps": [5],
    "name": "urban06"
  },
  {
    "gamemodes": ["racing"],
    "laps": [4],
    "name": "urban08_1"
  },
  {
    "gamemodes": ["racing"],
    "laps": [10],
    "name": "speedway1_figure_8"
  },
  {
    "gamemodes": ["racing"],
    "laps": [8],
    "name": "speedway1_oval"
  },
  {
    "gamemodes": ["racing"],
    "laps": [12],
    "name": "fields12_1"
  },
  {
    "gamemodes": ["racing"],
    "laps": [12],
    "name": "fields12_2"
  },
  {
    "gamemodes": ["racing"],
    "laps": [12],
    "name": "bigstadium_figure_8"
  },
  {
    "gamemodes": ["racing"],
    "laps": [3],
    "name": "tarmac2_main_circuit_tourney"
  },
  {
    "gamemodes": ["racing"],
    "laps": [5],
    "name": "mixed3_r3"
  },
  {
    "gamemodes": ["racing"],
    "laps": [1],
    "name": "rt01_1"
  },
  {
    "gamemodes": ["racing"],
    "laps": [6],
    "name": "fields14_1"
  },
  {
    "gamemodes": ["racing"],
    "laps": [8],
    "name": "fields09_1"
  },
  {
    "gamemodes": ["racing"],
    "laps": [4],
    "name": "sandpit1_alt_loop"
  },
  {
    "gamemodes": ["racing"],
    "laps": [6],
    "name": "forest12_2"
  },
  {
    "gamemodes": ["racing"],
    "laps": [6],
    "name": "urban09_1"
  },
  {
    "gamemodes": ["racing"],
    "laps": [10],
    "name": "speedway2_inner_oval"
  },
  {
    "gamemodes": ["racing"],
    "laps": [10],
    "name": "dirt_speedway_dirt_oval"
  },
  {
    "gamemodes": ["racing"],
    "laps": [4],
    "name": "sandpit3_long_loop_rev"
  },
  {
    "gamemodes": ["racing"],
    "laps": [4],
    "name": "sandpit3_short_loop_rev"
  },
  {
    "gamemodes": ["racing"],
    "laps": [4],
    "name": "mixed7_r1"
  },
  {
    "gamemodes": ["racing"],
    "laps": [4],
    "name": "mixed7_r2"
  },
  {
    "gamemodes": ["racing"],
    "laps": [4],
    "name": "mixed7_r3"
  },
  {
    "gamemodes": ["racing"],
    "laps": [6],
    "name": "forest11_2"
  },
  {
    "gamemodes": ["racing"],
    "laps": [3],
    "name": "tarmac2_main_circuit_rev"
  },
  {
    "gamemodes": ["racing"],
    "laps": [6],
    "name": "mixed8_r1"
  },
  {
    "gamemodes": ["racing"],
    "laps": [6],
    "name": "mixed8_r2"
  }
]
